R en Rosario - Charla 1/9/23 - Creación de paquetes
…
The following objects are masked from 'package:stats':

    filter, lag

The following objects are masked from 'package:base':

    intersect, setdiff, setequal, union

installed.packages() |>
  as_tibble() |>
  filter(Priority %in% c("base", "recommended")) |>
  select(Package)

# A tibble: 29 × 1
   Package  
   <chr>    
 1 base     
 2 boot     
 3 class    
 4 cluster  
 5 codetools
 6 compiler 
 7 datasets 
 8 foreign  
 9 graphics 
10 grDevices
# ℹ 19 more rows
…
